{
  "npmScope": "angular-nativescript-electron-nestjs-seed",
  "projects": {
    "webapp": {
      "tags": []
    },
    "webapp-e2e": {
      "tags": []
    }
  },
  "implicitDependencies": {
    "angular.json": "*",
    "package.json": "*",
    "tsconfig.json": "*",
    "tslint.json": "*",
    "nx.json": "*"
  }
}
